<?xml version="1.0" encoding="UTF-8" standalone="no"?>
<svg
   width="256px"
   height="256px"
   viewBox="0 0 76 76"
   version="1.1"
   enable-background="new 0 0 76.00 76.00"
   xml:space="preserve"
   fill="currentColor"
   id="svg1"
   sodipodi:docname="line_grab.svg"
   inkscape:version="1.3.2 (091e20ef0f, 2023-11-25, custom)"
   xmlns:inkscape="http://www.inkscape.org/namespaces/inkscape"
   xmlns:sodipodi="http://sodipodi.sourceforge.net/DTD/sodipodi-0.dtd"
   xmlns="http://www.w3.org/2000/svg"
   xmlns:svg="http://www.w3.org/2000/svg"><defs
     id="defs1" /><sodipodi:namedview
     id="namedview1"
     pagecolor="#ffffff"
     bordercolor="#666666"
     borderopacity="1.0"
     inkscape:showpageshadow="2"
     inkscape:pageopacity="0.0"
     inkscape:pagecheckerboard="0"
     inkscape:deskcolor="#d1d1d1"
     inkscape:zoom="0.921875"
     inkscape:cx="127.45763"
     inkscape:cy="128"
     inkscape:window-width="1920"
     inkscape:window-height="1080"
     inkscape:window-x="0"
     inkscape:window-y="0"
     inkscape:window-maximized="1"
     inkscape:current-layer="svg1" /><g
     id="SVGRepo_bgCarrier"
     stroke-width="0"
     transform="matrix(1.5103014,0,0,1.73534,-19.391455,-27.942919)" /><g
     id="SVGRepo_tracerCarrier"
     stroke-linecap="round"
     stroke-linejoin="round"
     transform="matrix(1.5103014,0,0,1.73534,-19.391455,-27.942919)" /><g
     id="SVGRepo_iconCarrier"
     transform="matrix(1.5103014,0,0,1.73534,-18.636304,-30.545929)"> <path
   fill="currentColor"
   fill-opacity="1"
   stroke-width="0.2"
   stroke-linejoin="round"
   d="m 33,25 h 26 v 5 H 33 Z m 3,8 h 23 v 5 H 36 Z m 0,8 h 23 v 5 H 36 Z m -3,8 h 26 v 5 H 33 Z M 21,37 c 0,2.2092 1.7909,4 4,4 h 2 V 37.0001 L 33.75,43.5 27,50 v -4 h -2 c -4.9706,0 -9,-4.0295 -9,-9 v -3 c 0,-4.9705 4.0294,-9 9,-9 h 2 v 5 h -2 c -2.2091,0 -4,1.7909 -4,4 z"
   id="path1" /> </g></svg>
